<?xml version="1.0" encoding="UTF-8" standalone="no"?>
<!-- Created with Inkscape (http://www.inkscape.org/) -->

<svg
   width="128"
   height="128"
   viewBox="0 0 128 128"
   version="1.1"
   id="svg1"
   xml:space="preserve"
   sodipodi:docname="GTK_envision_logo_r1.svg"
   inkscape:version="1.3.2 (091e20ef0f, 2023-11-25, custom)"
   xmlns:inkscape="http://www.inkscape.org/namespaces/inkscape"
   xmlns:sodipodi="http://sodipodi.sourceforge.net/DTD/sodipodi-0.dtd"
   xmlns:xlink="http://www.w3.org/1999/xlink"
   xmlns="http://www.w3.org/2000/svg"
   xmlns:svg="http://www.w3.org/2000/svg"><sodipodi:namedview
     id="namedview1"
     pagecolor="#ffffff"
     bordercolor="#000000"
     borderopacity="0.25"
     inkscape:showpageshadow="2"
     inkscape:pageopacity="0.0"
     inkscape:pagecheckerboard="0"
     inkscape:deskcolor="#d1d1d1"
     inkscape:zoom="6.5296892"
     inkscape:cx="66.312498"
     inkscape:cy="74.88871"
     inkscape:window-width="2560"
     inkscape:window-height="1380"
     inkscape:window-x="0"
     inkscape:window-y="0"
     inkscape:window-maximized="1"
     inkscape:current-layer="svg1" /><defs
     id="defs1"><linearGradient
       id="linearGradient82"><stop
         style="stop-color:#3cc6ff;stop-opacity:1;"
         offset="0"
         id="stop54" /><stop
         style="stop-color:#0c688c;stop-opacity:1;"
         offset="0.29675916"
         id="stop83" /><stop
         style="stop-color:#005170;stop-opacity:1;"
         offset="0.62748277"
         id="stop58" /><stop
         style="stop-color:#7ed8ff;stop-opacity:1;"
         offset="0.98026186"
         id="stop81" /><stop
         style="stop-color:#035270;stop-opacity:1;"
         offset="1"
         id="stop82" /></linearGradient><linearGradient
       id="linearGradient39"><stop
         style="stop-color:#676767;stop-opacity:1;"
         offset="0"
         id="stop51" /><stop
         style="stop-color:#171717;stop-opacity:1;"
         offset="0.16620597"
         id="stop38" /><stop
         style="stop-color:#1f1f1f;stop-opacity:1;"
         offset="0.81960905"
         id="stop52" /><stop
         style="stop-color:#575757;stop-opacity:1;"
         offset="1"
         id="stop39" /></linearGradient><linearGradient
       id="linearGradient100"><stop
         style="stop-color:#c2c2c2;stop-opacity:0.99924999;"
         offset="0"
         id="stop101" /><stop
         style="stop-color:#838383;stop-opacity:1;"
         offset="0.08864182"
         id="stop104" /><stop
         style="stop-color:#717171;stop-opacity:1;"
         offset="0.3541151"
         id="stop106" /><stop
         style="stop-color:#c0c0c0;stop-opacity:1;"
         offset="0.50425786"
         id="stop103" /><stop
         style="stop-color:#707070;stop-opacity:1;"
         offset="0.66438305"
         id="stop107" /><stop
         style="stop-color:#808080;stop-opacity:1;"
         offset="0.90684462"
         id="stop105" /><stop
         style="stop-color:#c6c6c6;stop-opacity:1;"
         offset="1"
         id="stop102" /></linearGradient><linearGradient
       id="linearGradient94"><stop
         style="stop-color:#acabae;stop-opacity:1;"
         offset="0"
         id="stop94" /><stop
         style="stop-color:#7c7a82;stop-opacity:1;"
         offset="0.39653233"
         id="stop96" /><stop
         style="stop-color:#9e9da1;stop-opacity:1;"
         offset="0.44325387"
         id="stop99" /><stop
         style="stop-color:#7c7a82;stop-opacity:1;"
         offset="0.49572933"
         id="stop98" /><stop
         style="stop-color:#a2a0a7;stop-opacity:1;"
         offset="0.56865025"
         id="stop100" /><stop
         style="stop-color:#7c7a82;stop-opacity:1;"
         offset="0.65235651"
         id="stop97" /><stop
         style="stop-color:#b0b0b2;stop-opacity:1;"
         offset="1"
         id="stop95" /></linearGradient><linearGradient
       id="linearGradient91"><stop
         style="stop-color:#8ff0a4;stop-opacity:1;"
         offset="0"
         id="stop91" /><stop
         style="stop-color:#df8ff0;stop-opacity:1;"
         offset="0.96329021"
         id="stop93" /></linearGradient><linearGradient
       id="linearGradient77"><stop
         style="stop-color:#000000;stop-opacity:1;"
         offset="0"
         id="stop77" /><stop
         style="stop-color:#5b5b5b;stop-opacity:1;"
         offset="0.52484399"
         id="stop79" /><stop
         style="stop-color:#5a5a5a;stop-opacity:1;"
         offset="0.60827535"
         id="stop80" /><stop
         style="stop-color:#000000;stop-opacity:1;"
         offset="1"
         id="stop78" /></linearGradient><linearGradient
       id="linearGradient34"><stop
         style="stop-color:#167095;stop-opacity:1;"
         offset="0.36515161"
         id="stop33" /><stop
         style="stop-color:#015271;stop-opacity:1;"
         offset="1"
         id="stop34" /></linearGradient><linearGradient
       id="linearGradient22"><stop
         style="stop-color:#005170;stop-opacity:1;"
         offset="0"
         id="stop23" /><stop
         style="stop-color:#0088c0;stop-opacity:1;"
         offset="0.27868447"
         id="stop25" /><stop
         style="stop-color:#0088c0;stop-opacity:1;"
         offset="0.72576803"
         id="stop26" /><stop
         style="stop-color:#005170;stop-opacity:1;"
         offset="1"
         id="stop24" /></linearGradient><linearGradient
       xlink:href="#linearGradient77"
       id="linearGradient89"
       gradientUnits="userSpaceOnUse"
       x1="946.38147"
       y1="591.50555"
       x2="1026.3815"
       y2="548.49774"
       gradientTransform="translate(-926.38143,-514.9516)" /><linearGradient
       xlink:href="#linearGradient91"
       id="linearGradient92"
       x1="942.37543"
       y1="567.36835"
       x2="1038.3875"
       y2="567.36835"
       gradientUnits="userSpaceOnUse"
       gradientTransform="translate(-926.38146,-514.9516)" /><linearGradient
       xlink:href="#linearGradient94"
       id="linearGradient95"
       x1="942.44885"
       y1="583.25476"
       x2="1038.3149"
       y2="583.25476"
       gradientUnits="userSpaceOnUse"
       gradientTransform="translate(-926.38146,-514.9516)" /><linearGradient
       xlink:href="#linearGradient100"
       id="linearGradient102"
       x1="946.61041"
       y1="590.28461"
       x2="1034.3815"
       y2="590.28461"
       gradientUnits="userSpaceOnUse"
       gradientTransform="translate(-926.38146,-514.9516)" /><linearGradient
       xlink:href="#linearGradient39"
       id="linearGradient2"
       x1="1034.3815"
       y1="605.83063"
       x2="946.56226"
       y2="606.63055"
       gradientUnits="userSpaceOnUse"
       gradientTransform="translate(-926.38146,-514.9516)" /><radialGradient
       xlink:href="#linearGradient34"
       id="radialGradient22-9-0"
       cx="114"
       cy="58"
       fx="114"
       fy="58"
       r="2"
       gradientTransform="matrix(1.4105255,0,0,5,-144.75776,-232.97758)"
       gradientUnits="userSpaceOnUse" /><radialGradient
       xlink:href="#linearGradient34"
       id="radialGradient22-6"
       cx="114"
       cy="58"
       fx="114"
       fy="58"
       r="2"
       gradientTransform="matrix(1.4105255,0,0,5,-48.84203,-232.97758)"
       gradientUnits="userSpaceOnUse" /><linearGradient
       xlink:href="#linearGradient82"
       id="linearGradient52"
       gradientUnits="userSpaceOnUse"
       gradientTransform="matrix(0.94035041,0,0,1.53875,3.8176,-61.31759)"
       x1="56"
       y1="112"
       x2="56"
       y2="48" /><linearGradient
       xlink:href="#linearGradient22"
       id="linearGradient54"
       gradientUnits="userSpaceOnUse"
       gradientTransform="matrix(0.95843409,0,0,1,2.66025,-0.97758)"
       x1="12"
       y1="94"
       x2="116"
       y2="94" /></defs><g
     id="g1"
     transform="translate(4e-5,2.5021727)"><path
       style="fill:url(#linearGradient2);fill-opacity:1;stroke:none;stroke-linecap:round;stroke-opacity:1"
       d="m 28,58.879019 c 0,0 -7.81923,28.79995 -7.81923,32.79995 0,4 16,-8 28,-8 12,0 6.83268,-16.79995 15.81923,-16.79995 8.98655,0 4.18073,16.79995 16.18084,16.79995 12,0 28.9679,11.88112 27.9999,8 l -8.1807,-32.79995"
       id="path100-6" /><path
       style="fill:url(#linearGradient102);stroke:none;stroke-linecap:round;stroke-opacity:1"
       d="m 16,54.879019 c 0,0 4,28 4,32 0,4 16,-8 28,-8 12,0 7.01345,-12 16,-12 8.98655,0 3.99996,12 16.00004,12 12,0 27.5032,11.96904 28,8 l 4.0059,-32.00732"
       id="path100" /><path
       style="fill:url(#linearGradient95);fill-opacity:1;stroke:none;stroke-linecap:round;stroke-opacity:1"
       d="M 16.06738,58.814169 C 20,74.879019 32.17221,76.128709 43.99992,77.627509 55.90472,79.136079 56,66.879019 64,66.879019 c 8,0 8.12533,12.47916 20.00004,10.74849 12.2217,-1.78123 24,-2.74849 27.9334,-18.81334"
       id="path93" /><path
       id="polyline2"
       d="m 63.39943,30.500359 -0.18558,0.003 h -0.18043 -0.17528 l -0.17013,0.003 h -0.16497 -0.16239 l -0.15982,0.003 H 62.0436 l -0.15724,0.003 H 61.7317 l -0.15466,0.003 h -0.15466 l -0.15466,0.003 H 61.1105 l -0.15982,0.003 -0.1624,0.003 -0.16754,0.003 -0.17013,0.003 -0.17528,0.003 -0.18043,0.003 -0.1856,0.003 -0.19331,0.003 -0.19849,0.003 -0.20879,0.005 -0.21652,0.003 -0.22683,0.005 -0.23456,0.005 -0.24488,0.005 -0.25775,0.005 -0.26809,0.008 -0.28096,0.008 -0.29386,0.005 -0.30673,0.008 -0.32221,0.0104 -0.33766,0.008 -0.35057,0.013 -0.3686,0.0104 -0.38407,0.0155 -0.40212,0.013 -0.42015,0.0181 -0.44077,0.0155 -0.45625,0.0206 -0.47944,0.018 -0.49748,0.0206 -0.52068,0.0232 -1.49503,0.08 -1.46153,0.11344 -1.42802,0.13919 -1.39449,0.16755 -1.36358,0.19332 -1.33006,0.2191 -1.29656,0.23972 -1.26562,0.26293 -1.23469,0.28095 -1.20376,0.29901 -1.17283,0.31447 -1.14189,0.33252 -1.12128,0.35313 -1.08776,0.37377 -1.05168,0.39438 -1.01817,0.41242 -0.98207,0.42789 -0.95116,0.44593 -0.91763,0.45882 -0.88414,0.4717 -0.8532,0.48202 -0.82226,0.49234 -0.79392,0.50006 -0.76299,0.50779 -0.74493,0.52326 -0.71142,0.53615 -0.67535,0.54131 -0.63926,0.54904 -0.60575,0.55676 -0.57481,0.55936 -0.54131,0.5645 -0.50779,0.56708 -0.47686,0.56965 -0.44851,0.57224 -0.41758,0.56966 -0.38664,0.57223 -0.36087,0.57482 -0.32994,0.57224 -0.29644,0.57223 -0.26549,0.56966 -0.23199,0.56451 -0.20105,0.56192 -0.17013,0.55678 -0.13919,0.55161 -0.10562,0.54646 -0.0774,0.5413 -0.0464,0.53101 -0.0155,0.52583 v 0.0542 0.0619 0.0671 0.0747 0.0774 0.085 0.0876 0.0953 0.0979 0.10315 0.10823 0.11084 0.11343 0.11852 0.12113 0.12372 0.12634 0.12894 0.13146 0.13145 0.13662 0.13403 0.13663 0.13918 0.13661 0.1392 0.13661 0.13662 0.13403 0.13663 0.13145 0.13146 0.12894 0.12881 0.12633 0.12112 0.12113 0.11604 0.11605 0.11083 0.10562 0.10315 0.10055 0.0953 0.0903 0.0851 0.0798 0.0747 l 0.0309,0.92023 0.085,0.88414 0.14177,0.84546 0.19333,0.80938 0.24746,0.77329 0.29384,0.73721 0.34026,0.70369 0.38406,0.66761 0.42789,0.63668 0.46913,0.60575 0.50779,0.57481 0.54388,0.54131 0.56966,0.51553 0.60833,0.49747 0.63668,0.47944 0.66761,0.46141 0.69596,0.44593 0.71916,0.42531 0.74236,0.40726 0.76299,0.38666 0.77844,0.36859 0.7965,0.34799 0.80938,0.32736 0.81711,0.30416 0.81969,0.28611 0.82742,0.27581 0.83773,0.2655 0.84289,0.25261 0.84805,0.2423 0.84546,0.22683 0.84547,0.21394 0.84031,0.20107 0.83515,0.18301 0.82227,0.16754 0.81196,0.1495 0.7965,0.13405 0.77586,0.11604 0.76041,0.10562 0.74236,0.0953 0.72174,0.08 0.69854,0.0696 0.67277,0.0566 0.64698,0.0438 0.61864,0.0309 0.58512,0.0155 0.54904,0.003 0.51553,-0.013 0.47428,-0.0284 0.52069,-0.0542 0.50006,-0.08 0.48459,-0.10315 0.46656,-0.12634 0.45367,-0.1495 0.43561,-0.16755 0.42016,-0.19074 0.40985,-0.2088 0.39437,-0.22683 0.38408,-0.24229 0.37117,-0.26034 0.36087,-0.27581 0.34799,-0.28613 0.34282,-0.30158 0.33251,-0.30931 0.32737,-0.31963 0.31963,-0.32736 0.31447,-0.33252 0.31189,-0.34283 0.30416,-0.3454 0.30417,-0.34797 0.299,-0.35315 0.29901,-0.35571 0.29642,-0.35571 0.29901,-0.35572 0.29644,-0.35056 0.30158,-0.34798 0.30159,-0.34283 0.30415,-0.33767 0.3119,-0.33252 0.31448,-0.3222 0.31962,-0.31447 0.32736,-0.30416 0.33251,-0.29386 0.34283,-0.28095 0.35056,-0.26808 0.36087,-0.25519 0.37118,-0.23714 0.38149,-0.21911 0.39438,-0.20363 0.40727,-0.18301 0.42274,-0.1624 0.43561,-0.13918 0.45109,-0.11605 0.46914,-0.0927 0.48202,-0.0696 0.50263,-0.0413 0.52069,-0.013 0.52067,0.013 0.50265,0.0413 0.4846,0.0696 0.46913,0.0927 0.45108,0.11605 0.43563,0.13918 0.42016,0.1624 0.40726,0.18301 0.39438,0.20363 0.38406,0.21911 0.37119,0.23714 0.36087,0.25519 0.35055,0.26808 0.34025,0.28095 0.3351,0.29386 0.32736,0.30416 0.31963,0.31447 0.31447,0.3222 0.30932,0.33252 0.30673,0.33767 0.30158,0.34283 0.29902,0.34798 0.29901,0.35056 0.29642,0.35572 0.29901,0.35571 0.299,0.35571 0.29901,0.35315 0.3016,0.34797 0.3067,0.3454 0.3093,0.34283 0.3145,0.33252 0.3222,0.32736 0.3248,0.31963 0.3351,0.30931 0.3402,0.30158 0.3506,0.28613 0.3608,0.27581 0.3712,0.26034 0.3841,0.24229 0.3944,0.22683 0.4072,0.2088 0.4228,0.19074 0.4356,0.16755 0.4511,0.1495 0.4691,0.12634 0.482,0.10315 0.5027,0.08 0.5181,0.0542 0.4768,0.0284 0.513,0.013 0.5517,-0.003 0.585,-0.0155 0.6187,-0.0309 0.6444,-0.0438 0.6753,-0.0566 0.6986,-0.0696 0.7217,-0.08 0.7423,-0.0953 0.7605,-0.10562 0.7758,-0.11604 0.7965,-0.13405 0.8119,-0.1495 0.8222,-0.16754 0.8353,-0.18301 0.8403,-0.20107 0.8454,-0.21394 0.8455,-0.22683 0.8455,-0.2423 0.8455,-0.25261 0.8351,-0.2655 0.83,-0.27581 0.8172,-0.28611 0.8197,-0.30416 0.8093,-0.32736 0.794,-0.34799 0.781,-0.36859 0.763,-0.38666 0.7423,-0.40726 0.7192,-0.42531 0.6959,-0.44593 0.6676,-0.46141 0.6367,-0.47944 0.6058,-0.49747 0.5723,-0.51553 0.5438,-0.54131 0.5077,-0.57481 0.4667,-0.60575 0.4278,-0.63668 0.3867,-0.66761 0.3402,-0.70369 0.2939,-0.73721 0.2449,-0.77329 0.1959,-0.80938 0.1392,-0.84546 0.087,-0.88414 0.029,-0.92023 v -0.0747 -0.0798 -0.0851 -0.0903 -0.0953 -0.10055 -0.10315 -0.10562 -0.11083 -0.11605 -0.11604 -0.12113 -0.12112 -0.12633 -0.12881 -0.12894 -0.13146 -0.13145 -0.13663 -0.13403 -0.13662 -0.13661 -0.1392 -0.13661 -0.13918 -0.13663 -0.13403 -0.13662 -0.13145 -0.13146 -0.12894 -0.12634 -0.12372 -0.12113 -0.11852 -0.11343 -0.11084 -0.10823 -0.10315 -0.0979 -0.0953 -0.0876 -0.085 -0.0774 -0.0747 -0.0671 -0.0619 -0.0542 l -0.016,-0.52583 -0.044,-0.53101 -0.077,-0.5413 -0.1081,-0.54646 -0.1367,-0.55161 -0.1701,-0.55678 -0.201,-0.56192 -0.2346,-0.56451 -0.263,-0.56966 -0.2964,-0.57223 -0.3299,-0.57224 -0.3609,-0.57482 -0.3865,-0.57223 -0.4177,-0.56966 -0.4484,-0.57224 -0.477,-0.56965 -0.5104,-0.56708 -0.5387,-0.5645 -0.5747,-0.55936 -0.6058,-0.55676 -0.6418,-0.54904 -0.6728,-0.54131 -0.7114,-0.53615 -0.745,-0.52326 -0.7629,-0.50779 -0.7939,-0.50006 -0.8224,-0.49234 -0.8532,-0.48202 -0.8867,-0.4717 -0.915,-0.45882 -0.9512,-0.44593 -0.9821,-0.42789 -1.0182,-0.41242 -1.0517,-0.39438 -1.0878,-0.37377 -1.1238,-0.35313 -1.1418,-0.33252 -1.1703,-0.31447 -1.2037,-0.29901 -1.2347,-0.28095 -1.2656,-0.26293 -1.2992,-0.23972 -1.33,-0.2191 -1.361,-0.19332 -1.3971,-0.16755 -1.428,-0.13919 -1.4615,-0.11344 -1.4951,-0.08 -0.5181,-0.0232 -0.5,-0.0206 -0.4769,-0.018 -0.4588,-0.0206 -0.43819,-0.0155 -0.42016,-0.0181 -0.40211,-0.013 -0.38407,-0.0155 -0.3686,-0.0104 -0.35057,-0.013 -0.33766,-0.008 -0.32222,-0.0104 -0.30673,-0.008 -0.29384,-0.005 -0.28097,-0.008 -0.26809,-0.008 -0.25776,-0.005 -0.24487,-0.005 -0.23714,-0.005 -0.22427,-0.005 -0.21651,-0.003 -0.20878,-0.005 -0.20107,-0.003 -0.19074,-0.003 -0.18817,-0.003 -0.18043,-0.003 -0.1727,-0.003 -0.17013,-0.003 -0.16754,-0.003 -0.1624,-0.003 -0.15981,-0.003 h -0.15723 l -0.15466,-0.003 h -0.15467 l -0.15466,-0.003 h -0.15723 l -0.15465,-0.003 h -0.15724 l -0.15982,-0.003 h -0.16239 -0.16755 l -0.16754,-0.003 h -0.17529 -0.18043 l -0.18558,-0.003 H 64.40954 64.20849 63.9997 63.79348 63.59243 Z"
       style="fill:url(#linearGradient92);stroke-width:0.0913504" /><path
       id="polyline2-9"
       style="fill:url(#linearGradient89);stroke-width:0.0913504"
       d="m 63.25721,32.503479 c -13.91554,-0.0447 -29.45424,0.69 -40.36893,10.44434 -5.10944,4.23965 -5.90038,11.42072 -4.4096,17.4979 1.7188,5.86848 8.23135,8.00027 13.42426,9.80859 4.89244,1.1992 10.04202,2.49209 15.08288,1.86485 6.08086,-1.95212 7.93706,-9.69464 14.36719,-11.18475 6.59608,-1.88553 11.83346,3.78283 15.31903,8.58155 4.5161,4.68188 11.4436,2.37053 16.984,1.38069 5.501,-1.44198 11.592,-3.45004 15.0062,-8.281 2.0574,-4.6846 2.073,-10.51466 -0.035,-15.18382 -5.0825,-8.26662 -14.9429,-12.06143 -24.1119,-13.68248 -7.0176,-1.19396 -14.16015,-1.23403 -21.25843,-1.24587 z" /></g></svg>
